{
    "robaDto" : {
      "content" : [ {
        "robaid" : 120386,
        "slika" : {
          "slikeUrl" : "images/no-image/no-image.png",
          "robaSlika" : null,
          "url" : true
        },
        "katbr" : "77089",
        "katbrpro" : null,
        "naziv" : "ANTIFRIZ FEBI 100 % G 011 1.5L",
        "proizvodjac" : {
          "proid" : "FEBI",
          "naziv" : "FEBI"
        },
        "proizvodjacLogo" : null,
        "grupa" : "MPU",
        "podGrupa" : 2371,
        "podGrupaNaziv" : "ANTIFRIZ",
        "cena" : 870,
        "rabat" : 0.0,
        "dokumentSlikaId" : null,
        "dokument" : null,
        "stanje" : 40.0,
        "dozvoljenoZaAnonimusa" : false,
        "tehnickiOpis" : [ ]
      }, {
        "robaid" : 122317,
        "slika" : {
          "slikeUrl" : "images/no-image/no-image.png",
          "robaSlika" : null,
          "url" : true
        },
        "katbr" : "79400",
        "katbrpro" : null,
        "naziv" : "ANTIFRIZ 100% G12+ FEBI 1.5L",
        "proizvodjac" : {
          "proid" : "FEBI",
          "naziv" : "FEBI"
        },
        "proizvodjacLogo" : null,
        "grupa" : "MPU",
        "podGrupa" : 2371,
        "podGrupaNaziv" : "ANTIFRIZ",
        "cena" : 850,
        "rabat" : 0.0,
        "dokumentSlikaId" : null,
        "dokument" : null,
        "stanje" : 2471.0,
        "dozvoljenoZaAnonimusa" : false,
        "tehnickiOpis" : [ ]
      }, {
        "robaid" : 143248,
        "slika" : {
          "slikeUrl" : "images/no-image/no-image.png",
          "robaSlika" : null,
          "url" : true
        },
        "katbr" : "VAL896736",
        "katbrpro" : null,
        "naziv" : "VALV AFC 12+ CONC 1L EEE",
        "proizvodjac" : {
          "proid" : "VA",
          "naziv" : "VALVOLINE"
        },
        "proizvodjacLogo" : null,
        "grupa" : "MPU",
        "podGrupa" : 2371,
        "podGrupaNaziv" : "ANTIFRIZ",
        "cena" : 508,
        "rabat" : 0.0,
        "dokumentSlikaId" : null,
        "dokument" : null,
        "stanje" : 270.0,
        "dozvoljenoZaAnonimusa" : false,
        "tehnickiOpis" : [ ]
      }, {
        "robaid" : 118411,
        "slika" : {
          "slikeUrl" : null,
          "robaSlika" : null,
          "url" : false
        },
        "katbr" : "101171",
        "katbrpro" : null,
        "naziv" : "ULjE ZA HALDEX SPOJKU",
        "proizvodjac" : {
          "proid" : "FEBI",
          "naziv" : "FEBI"
        },
        "proizvodjacLogo" : null,
        "grupa" : "ADI",
        "podGrupa" : 2311,
        "podGrupaNaziv" : "ADITIV",
        "cena" : 2813,
        "rabat" : 0.0,
        "dokumentSlikaId" : "845520156899028",
        "dokument" : null,
        "stanje" : 2.0,
        "dozvoljenoZaAnonimusa" : true,
        "tehnickiOpis" : [ {
          "oznaka" : "Zapremina",
          "vrednost" : "1",
          "jedinica" : "l"
        }, {
          "oznaka" : "Težina",
          "vrednost" : "0,93",
          "jedinica" : "kg"
        } ]
      }, {
        "robaid" : 138690,
        "slika" : {
          "slikeUrl" : null,
          "robaSlika" : null,
          "url" : false
        },
        "katbr" : "170443",
        "katbrpro" : null,
        "naziv" : "ŠIPKA ZA MERENjE ULjA PSA",
        "proizvodjac" : {
          "proid" : "FEBI",
          "naziv" : "FEBI"
        },
        "proizvodjacLogo" : null,
        "grupa" : "CIT",
        "podGrupa" : 353,
        "podGrupaNaziv" : "DELOVI MOTORA",
        "cena" : 520,
        "rabat" : 0.0,
        "dokumentSlikaId" : "845520156913087",
        "dokument" : null,
        "stanje" : 1.0,
        "dozvoljenoZaAnonimusa" : false,
        "tehnickiOpis" : [ {
          "oznaka" : "Dužina od venca drške do oznake Min",
          "vrednost" : "526",
          "jedinica" : "mm"
        }, {
          "oznaka" : "Dužina od venca drške do oznake Max",
          "vrednost" : "506",
          "jedinica" : "mm"
        }, {
          "oznaka" : "Težina",
          "vrednost" : "0,021",
          "jedinica" : "kg"
        } ]
      }, {
        "robaid" : 111733,
        "slika" : {
          "slikeUrl" : null,
          "robaSlika" : null,
          "url" : false
        },
        "katbr" : "47301",
        "katbrpro" : null,
        "naziv" : "ŠIPKA ZA MERENjE ULjA PSA 1.6 HDi",
        "proizvodjac" : {
          "proid" : "FEBI",
          "naziv" : "FEBI"
        },
        "proizvodjacLogo" : null,
        "grupa" : "PEU",
        "podGrupa" : 1024,
        "podGrupaNaziv" : "DELOVI MOTORA",
        "cena" : 527,
        "rabat" : 0.0,
        "dokumentSlikaId" : "845520156974338",
        "dokument" : null,
        "stanje" : 4.0,
        "dozvoljenoZaAnonimusa" : false,
        "tehnickiOpis" : [ {
          "oznaka" : "Dužina od venca drške do oznake Min",
          "vrednost" : "546",
          "jedinica" : "mm"
        }, {
          "oznaka" : "Dužina",
          "vrednost" : "591",
          "jedinica" : "mm"
        }, {
          "oznaka" : "Dužina od venca drške do oznake Max",
          "vrednost" : "503",
          "jedinica" : "mm"
        }, {
          "oznaka" : "Težina",
          "vrednost" : "0,0140",
          "jedinica" : "kg"
        } ]
      }, {
        "robaid" : 151063,
        "slika" : {
          "slikeUrl" : null,
          "robaSlika" : null,
          "url" : false
        },
        "katbr" : "47302",
        "katbrpro" : null,
        "naziv" : "ŠIPKA MERAČA ULjA PSA /OPEL",
        "proizvodjac" : {
          "proid" : "FEBI",
          "naziv" : "FEBI"
        },
        "proizvodjacLogo" : null,
        "grupa" : "PEU",
        "podGrupa" : 267,
        "podGrupaNaziv" : "DELOVI MOTORA",
        "cena" : 503,
        "rabat" : 0.0,
        "dokumentSlikaId" : "845520156974339",
        "dokument" : null,
        "stanje" : 1.0,
        "dozvoljenoZaAnonimusa" : false,
        "tehnickiOpis" : [ {
          "oznaka" : "Dužina od venca drške do oznake Min",
          "vrednost" : "522",
          "jedinica" : "mm"
        }, {
          "oznaka" : "Dužina od venca drške do oznake Max",
          "vrednost" : "479",
          "jedinica" : "mm"
        }, {
          "oznaka" : "Težina",
          "vrednost" : "0,0215",
          "jedinica" : "kg"
        } ]
      }, {
        "robaid" : 125988,
        "slika" : {
          "slikeUrl" : null,
          "robaSlika" : null,
          "url" : false
        },
        "katbr" : "49210",
        "katbrpro" : null,
        "naziv" : "SET LANCA MERCEDES 06-",
        "proizvodjac" : {
          "proid" : "FEBI",
          "naziv" : "FEBI"
        },
        "proizvodjacLogo" : null,
        "grupa" : "ME",
        "podGrupa" : 207,
        "podGrupaNaziv" : "DELOVI MOTORA",
        "cena" : 29440,
        "rabat" : 0.0,
        "dokumentSlikaId" : "845520156976138",
        "dokument" : null,
        "stanje" : 2.0,
        "dozvoljenoZaAnonimusa" : false,
        "tehnickiOpis" : [ {
          "oznaka" : "Broj karika",
          "vrednost" : "96",
          "jedinica" : null
        }, {
          "oznaka" : "Težina",
          "vrednost" : "1,038",
          "jedinica" : "kg"
        } ]
      }, {
        "robaid" : 110590,
        "slika" : {
          "slikeUrl" : null,
          "robaSlika" : null,
          "url" : false
        },
        "katbr" : "47303",
        "katbrpro" : null,
        "naziv" : "ŠIPKA MERAČA ULjA PSA",
        "proizvodjac" : {
          "proid" : "FEBI",
          "naziv" : "FEBI"
        },
        "proizvodjacLogo" : null,
        "grupa" : "PEU",
        "podGrupa" : 1024,
        "podGrupaNaziv" : "DELOVI MOTORA",
        "cena" : 527,
        "rabat" : 0.0,
        "dokumentSlikaId" : "845520156974340",
        "dokument" : null,
        "stanje" : 4.0,
        "dozvoljenoZaAnonimusa" : false,
        "tehnickiOpis" : [ {
          "oznaka" : "Dužina od venca drške do oznake Min",
          "vrednost" : "587",
          "jedinica" : "mm"
        }, {
          "oznaka" : "Dužina od venca drške do oznake Max",
          "vrednost" : "568",
          "jedinica" : "mm"
        }, {
          "oznaka" : "Težina",
          "vrednost" : "0,020",
          "jedinica" : "kg"
        } ]
      }, {
        "robaid" : 1009399,
        "slika" : {
          "slikeUrl" : null,
          "robaSlika" : null,
          "url" : false
        },
        "katbr" : "47300",
        "katbrpro" : null,
        "naziv" : "ŠIPKA ZA MER.ULjA PSA",
        "proizvodjac" : {
          "proid" : "FEBI",
          "naziv" : "FEBI"
        },
        "proizvodjacLogo" : null,
        "grupa" : "CIT",
        "podGrupa" : 353,
        "podGrupaNaziv" : "DELOVI MOTORA",
        "cena" : 594,
        "rabat" : 0.0,
        "dokumentSlikaId" : "845520156974337",
        "dokument" : null,
        "stanje" : 3.0,
        "dozvoljenoZaAnonimusa" : false,
        "tehnickiOpis" : [ {
          "oznaka" : "Dužina od venca drške do oznake Min",
          "vrednost" : "490",
          "jedinica" : "mm"
        }, {
          "oznaka" : "Dužina",
          "vrednost" : "530",
          "jedinica" : "mm"
        }, {
          "oznaka" : "Dužina od venca drške do oznake Max",
          "vrednost" : "455",
          "jedinica" : "mm"
        }, {
          "oznaka" : "Težina",
          "vrednost" : "0,0145",
          "jedinica" : "kg"
        } ]
      } ],
      "pageable" : {
        "pageNumber" : 0,
        "pageSize" : 10,
        "sort" : {
          "empty" : true,
          "sorted" : false,
          "unsorted" : true
        },
        "offset" : 0,
        "paged" : true,
        "unpaged" : false
      },
      "last" : false,
      "totalPages" : 14,
      "totalElements" : 131,
      "first" : true,
      "size" : 10,
      "number" : 0,
      "sort" : {
        "empty" : true,
        "sorted" : false,
        "unsorted" : true
      },
      "numberOfElements" : 10,
      "empty" : false
    },
    "podgrupe" : [ "ADITIV", "AMORTIZER+ODBOJNICI", "ANTIFRIZ", "DELOVI MOTORA", "ELEKTRIKA", "FILTER", "FILTER GORIVA", "FILTER ULJA", "FILTER VAZDUHA", "KAROSERIJA", "KOČIONE PLOČICE", "KOČIONI DISK", "OSTALO", "PK KAIŠ", "SET KAIŠA", "TERMOREGULACIJA", "ULJA ZA MENJAČ I DIFERENCIJAL", "UPRAVLJANJE", "VEŠANJE I AMORTIZOVANJE", "VEŠANJE I AMORTIZOVANJE\n-UPRAVLJANJE\nVEŠANJE I A", "ZAPTIVKE", "ŠPANER" ],
    "proizvodjaci" : [ {
      "proid" : "3RG",
      "naziv" : "3RG"
    }, {
      "proid" : "AB",
      "naziv" : "AB FILTER"
    }, {
      "proid" : "AIC",
      "naziv" : "AIC"
    }, {
      "proid" : "AKR",
      "naziv" : "AKRON"
    }, {
      "proid" : "AM",
      "naziv" : "AMC"
    }, {
      "proid" : "ASMET",
      "naziv" : "ASMETAL"
    }, {
      "proid" : "ATE",
      "naziv" : "ATE"
    }, {
      "proid" : "BLUE",
      "naziv" : "BLUE PRINT"
    }, {
      "proid" : "BMW",
      "naziv" : "BMW"
    }, {
      "proid" : "BOSCH",
      "naziv" : "BOSCH"
    }, {
      "proid" : "BRMB",
      "naziv" : "BREMBO"
    }, {
      "proid" : "CLEAN",
      "naziv" : "CLEAN"
    }, {
      "proid" : "CORT",
      "naziv" : "CORTECO"
    }, {
      "proid" : "DAY",
      "naziv" : "DAYCO"
    }, {
      "proid" : "DEDAX",
      "naziv" : "DEDAX"
    }, {
      "proid" : "DEL",
      "naziv" : "DELPHI"
    }, {
      "proid" : "DENCK",
      "naziv" : "DENCKERMANN"
    }, {
      "proid" : "FEBI",
      "naziv" : "FEBI"
    }, {
      "proid" : "FIAT",
      "naziv" : "FIAT"
    }, {
      "proid" : "FILTR",
      "naziv" : "FILTRON"
    }, {
      "proid" : "HENG",
      "naziv" : "HENGST"
    }, {
      "proid" : "HIQ",
      "naziv" : "Hi-Q"
    }, {
      "proid" : "HP",
      "naziv" : "HANS PRIES"
    }, {
      "proid" : "JP",
      "naziv" : "JAPANPARTS"
    }, {
      "proid" : "JURID",
      "naziv" : "JURID"
    }, {
      "proid" : "LEMF",
      "naziv" : "LEMFORDER"
    }, {
      "proid" : "LUK",
      "naziv" : "LUK"
    }, {
      "proid" : "MAGNM",
      "naziv" : "MAGNETI MARELLI"
    }, {
      "proid" : "MAHL",
      "naziv" : "MAHLE"
    }, {
      "proid" : "MANN",
      "naziv" : "MANN"
    }, {
      "proid" : "MAXG",
      "naziv" : "MAXGEAR"
    }, {
      "proid" : "MEYLE",
      "naziv" : "MEYLE"
    }, {
      "proid" : "MNR",
      "naziv" : "MONROE"
    }, {
      "proid" : "MTCH",
      "naziv" : "METALCAUCHO"
    }, {
      "proid" : "NTY",
      "naziv" : "NTY"
    }, {
      "proid" : "PEUG",
      "naziv" : "PEUGEOT"
    }, {
      "proid" : "RUVIL",
      "naziv" : "RUVILLE"
    }, {
      "proid" : "SACHS",
      "naziv" : "SACHS"
    }, {
      "proid" : "SKF",
      "naziv" : "SKF"
    }, {
      "proid" : "STEI",
      "naziv" : "STEINBERG"
    }, {
      "proid" : "SWAG",
      "naziv" : "SWAG"
    }, {
      "proid" : "TEXT",
      "naziv" : "TEXTAR"
    }, {
      "proid" : "TRW",
      "naziv" : "TRW"
    }, {
      "proid" : "VA",
      "naziv" : "VALVOLINE"
    }, {
      "proid" : "VR",
      "naziv" : "VICTOR REINZ"
    }, {
      "proid" : "WIX",
      "naziv" : "WIX Filtration Products"
    } ]
  }
